{
    "merch_map": {
        "12": {
            "name": "Coca-Cola can",
            "price": 3.5,
            "stock": 6
        },
        "13": {
            "name": "Solo can",
            "price": 3.5,
            "stock": 6
        },
        "14": {
            "name": "Macha can",
            "price": 3.5,
            "stock": 6
        },
        "15": {
            "name": "Apple juice",
            "price": 4.5,
            "stock": 6
        },
        "16": {
            "name": "Pear juice",
            "price": 4.5,
            "stock": 6
        },
        "21": {
            "name": "Kitkat",
            "price": 2.5,
            "stock": 6
        },
        "23": {
            "name": "Lindt Chocolate Bar",
            "price": 3.7,
            "stock": 6
        },
        "24": {
            "name": "Snickers",
            "price": 3.2,
            "stock": 8
        },
        "25": {
            "name": "Chewing Gum",
            "price": 3.2,
            "stock": 8
        },
        "31": {
            "name": "Chips",
            "price": 2.30,
            "stock": 8
        },
        "32": {
            "name": "Doritos",
            "price": 2.30,
            "stock": 8
        },
        "33": {
            "name": "Nuts",
            "price": 3.40,
            "stock": 8
        },
        "44": {
            "name": "Push toy",
            "price": 10.90,
            "stock": 8
        }
    },
    "money_reserve": {
        "0.2": 50,
        "0.5": 50,
        "1.0": 50,
        "2.0": 50,
        "5.0": 20,
        "10.0": 10
    }
}
